ANSI-C/cC++ Compiler for HC12 V-5.0.41 Build 10203, Jul 23 2010

    1:  // IDS-CAN Integration.c
    2:  // Product specific IDS-CAN integration
    3:  // (c) 2012, 2013, 2014 Innovative Design Solutions, Inc.
    4:  // All rights reserved
    5:  
    6:  #include "global.h"
    7:  
    8:  ////////////////////////////////////////////////////////////////////////////////
    9:  ////////////////////////////////////////////////////////////////////////////////
   10:  ////////////////////////////////////////////////////////////////////////////////
   11:  ////////////////////////////////////////////////////////////////////////////////
   12:  
   13:  #ifdef HEADER
   14:  
   15:  const uint8* IDS_CAN_GetAdapterMAC(void);
   16:  void IDS_CAN_SetAdapterMAC(const uint8* mac);
   17:  
   18:  uint32 IDS_CAN_GetCircuitID(IDS_CAN_DEVICE device);
   19:  void IDS_CAN_SetCircuitID(IDS_CAN_DEVICE device, uint32 circuit_id);
   20:  
   21:  IDS_CAN_PRODUCT_ID IDS_CAN_GetProductID(void);
   22:  
   23:  IDS_CAN_FUNCTION_NAME IDS_CAN_GetFunctionName(IDS_CAN_DEVICE device);
   24:  uint8 IDS_CAN_GetFunctionInstance(IDS_CAN_DEVICE device);
   25:  void IDS_CAN_SetFunctionName(IDS_CAN_DEVICE device, IDS_CAN_FUNCTION_NAME function_name);
   26:  void IDS_CAN_SetFunctionInstance(IDS_CAN_DEVICE device, uint8 function_instance);
   27:  
   28:  #else
   29:  
   30:  ////////////////////////////////////////////////////////////////////////////////
   31:  ////////////////////////////////////////////////////////////////////////////////
   32:  ////////////////////////////////////////////////////////////////////////////////
   33:  ////////////////////////////////////////////////////////////////////////////////
   34:  
   35:  void Callback_OnConfigIDS_CAN_BlockLoadEvent(uint8 success)
   36:  {

Function: Callback_OnConfigIDS_CAN_BlockLoadEvent
Source  : H:\Lippert\Projects\PR20170026 MyRV Switch Block\SW\22720 MyRV Switch Block SW\Sources\IDS-CAN_Integration.c
Options : -Cni -CPUHCS12 -DPPAGE_ADDR=0x15 -D__MAP_FLASH__ -Env"GENPATH=H:\Lippert\Projects\PR20170026 MyRV Switch Block\SW\22720 MyRV Switch Block SW;H:\Lippert\Projects\PR20170026 MyRV Switch Block\SW\22720 MyRV Switch Block SW\bin;H:\Lippert\Projects\PR20170026 MyRV Switch Block\SW\22720 MyRV Switch Block SW\prm;H:\Lippert\Projects\PR20170026 MyRV Switch Block\SW\22720 MyRV Switch Block SW\cmd;H:\Lippert\Projects\PR20170026 MyRV Switch Block\SW\22720 MyRV Switch Block SW\Sources;C:\Program Files (x86)\Freescale\CWS12v5.1\lib\HC12c\lib;C:\Program Files (x86)\Freescale\CWS12v5.1\lib\HC12c\src;C:\Program Files (x86)\Freescale\CWS12v5.1\lib\HC12c\include" -Env"LIBPATH=C:\Program Files (x86)\Freescale\CWS12v5.1\lib\HC12c\include" -Env"OBJPATH=H:\Lippert\Projects\PR20170026 MyRV Switch Block\SW\22720 MyRV Switch Block SW\bin" -Env"TEXTPATH=H:\Lippert\Projects\PR20170026 MyRV Switch Block\SW\22720 MyRV Switch Block SW\bin" -Lasm=%n.lst -Mb -MapFlash -ObjN="H:\Lippert\Projects\PR20170026 MyRV Switch Block\SW\22720 MyRV Switch Block SW\22720_My_RV_Switch_Block_Project_Data\Standard\ObjectCode\IDS-CAN_Integration.c.o" -TE1uE -WmsgSd1106 -WmsgSd4301

   37:  	if (!success)
  0000 04612a       [3]     TBNE  B,*+45 ;abs = 002d
   38:  	{
   39:  		uint8 n;
   40:  		for (n=0; n<NUM_IDS_CAN_DEVICES; n++)
  0003 c7           [1]     CLRB  
   41:  		{
   42:  			Config.IDS_CAN_Block.FunctionName[n] = IDS_CAN_FUNCTION_NAME_UNKNOWN;
  0004 87           [1]     CLRA  
  0005 3b           [2]     PSHD  
  0006 59           [1]     LSLD  
  0007 b745         [1]     TFR   D,X
  0009 cd0000       [2]     LDY   #0
  000c 6de20000     [3]     STY   Config:1,X
   43:  			Config.IDS_CAN_Block.FunctionInstance[n] = 0;
  0010 ee80         [3]     LDX   0,SP
  0012 69e20000     [3]     CLR   Config:17,X
   44:  			Config.IDS_CAN_Block.CircuitID[n] = 0;
  0016 b754         [1]     TFR   X,D
  0018 59           [1]     LSLD  
  0019 59           [1]     LSLD  
  001a b745         [1]     TFR   D,X
  001c 6de20000     [3]     STY   Config:27,X
  0020 6de20000     [3]     STY   Config:25,X
  0024 e681         [3]     LDAB  1,SP
  0026 52           [1]     INCB  
  0027 c108         [1]     CMPB  #8
  0029 1b82         [2]     LEAS  2,SP
  002b 25d7         [3/1]   BCS   *-39 ;abs = 0004
   45:  		}
   46:  	}
   47:  }
  002d 0a           [7]     RTC   
   48:  
   49:  IDS_CAN_PRODUCT_ID IDS_CAN_GetProductID(void)
   50:  {

Function: IDS_CAN_GetProductID
Source  : H:\Lippert\Projects\PR20170026 MyRV Switch Block\SW\22720 MyRV Switch Block SW\Sources\IDS-CAN_Integration.c
Options : -Cni -CPUHCS12 -DPPAGE_ADDR=0x15 -D__MAP_FLASH__ -Env"GENPATH=H:\Lippert\Projects\PR20170026 MyRV Switch Block\SW\22720 MyRV Switch Block SW;H:\Lippert\Projects\PR20170026 MyRV Switch Block\SW\22720 MyRV Switch Block SW\bin;H:\Lippert\Projects\PR20170026 MyRV Switch Block\SW\22720 MyRV Switch Block SW\prm;H:\Lippert\Projects\PR20170026 MyRV Switch Block\SW\22720 MyRV Switch Block SW\cmd;H:\Lippert\Projects\PR20170026 MyRV Switch Block\SW\22720 MyRV Switch Block SW\Sources;C:\Program Files (x86)\Freescale\CWS12v5.1\lib\HC12c\lib;C:\Program Files (x86)\Freescale\CWS12v5.1\lib\HC12c\src;C:\Program Files (x86)\Freescale\CWS12v5.1\lib\HC12c\include" -Env"LIBPATH=C:\Program Files (x86)\Freescale\CWS12v5.1\lib\HC12c\include" -Env"OBJPATH=H:\Lippert\Projects\PR20170026 MyRV Switch Block\SW\22720 MyRV Switch Block SW\bin" -Env"TEXTPATH=H:\Lippert\Projects\PR20170026 MyRV Switch Block\SW\22720 MyRV Switch Block SW\bin" -Lasm=%n.lst -Mb -MapFlash -ObjN="H:\Lippert\Projects\PR20170026 MyRV Switch Block\SW\22720 MyRV Switch Block SW\22720_My_RV_Switch_Block_Project_Data\Standard\ObjectCode\IDS-CAN_Integration.c.o" -TE1uE -WmsgSd1106 -WmsgSd4301

   51:  	return IDS_CAN_PRODUCT_ID_18452_LCI_LINCPAD_SWITCH_TO_CAN_CONVERTER_CONTROL_ASSEMBLY;
  0000 c60c         [1]     LDAB  #12
  0002 87           [1]     CLRA  
   52:  }
  0003 0a           [7]     RTC   
   53:  
   54:  const uint8* IDS_CAN_GetAdapterMAC(void)
   55:  {

Function: IDS_CAN_GetAdapterMAC
Source  : H:\Lippert\Projects\PR20170026 MyRV Switch Block\SW\22720 MyRV Switch Block SW\Sources\IDS-CAN_Integration.c
Options : -Cni -CPUHCS12 -DPPAGE_ADDR=0x15 -D__MAP_FLASH__ -Env"GENPATH=H:\Lippert\Projects\PR20170026 MyRV Switch Block\SW\22720 MyRV Switch Block SW;H:\Lippert\Projects\PR20170026 MyRV Switch Block\SW\22720 MyRV Switch Block SW\bin;H:\Lippert\Projects\PR20170026 MyRV Switch Block\SW\22720 MyRV Switch Block SW\prm;H:\Lippert\Projects\PR20170026 MyRV Switch Block\SW\22720 MyRV Switch Block SW\cmd;H:\Lippert\Projects\PR20170026 MyRV Switch Block\SW\22720 MyRV Switch Block SW\Sources;C:\Program Files (x86)\Freescale\CWS12v5.1\lib\HC12c\lib;C:\Program Files (x86)\Freescale\CWS12v5.1\lib\HC12c\src;C:\Program Files (x86)\Freescale\CWS12v5.1\lib\HC12c\include" -Env"LIBPATH=C:\Program Files (x86)\Freescale\CWS12v5.1\lib\HC12c\include" -Env"OBJPATH=H:\Lippert\Projects\PR20170026 MyRV Switch Block\SW\22720 MyRV Switch Block SW\bin" -Env"TEXTPATH=H:\Lippert\Projects\PR20170026 MyRV Switch Block\SW\22720 MyRV Switch Block SW\bin" -Lasm=%n.lst -Mb -MapFlash -ObjN="H:\Lippert\Projects\PR20170026 MyRV Switch Block\SW\22720 MyRV Switch Block SW\22720_My_RV_Switch_Block_Project_Data\Standard\ObjectCode\IDS-CAN_Integration.c.o" -TE1uE -WmsgSd1106 -WmsgSd4301

   56:  //	static const uint8 ff[6] = { 0xFF, 0xFF, 0xFF, 0xFF, 0xFF, 0xFF };
   57:  //	return ff;
   58:  	return Config.ProductionBlock.MAC;	
  0000 cc0000       [2]     LDD   #Config:59
   59:  }
  0003 0a           [7]     RTC   
   60:  
   61:  void IDS_CAN_SetAdapterMAC(const uint8* mac)
   62:  {

Function: IDS_CAN_SetAdapterMAC
Source  : H:\Lippert\Projects\PR20170026 MyRV Switch Block\SW\22720 MyRV Switch Block SW\Sources\IDS-CAN_Integration.c
Options : -Cni -CPUHCS12 -DPPAGE_ADDR=0x15 -D__MAP_FLASH__ -Env"GENPATH=H:\Lippert\Projects\PR20170026 MyRV Switch Block\SW\22720 MyRV Switch Block SW;H:\Lippert\Projects\PR20170026 MyRV Switch Block\SW\22720 MyRV Switch Block SW\bin;H:\Lippert\Projects\PR20170026 MyRV Switch Block\SW\22720 MyRV Switch Block SW\prm;H:\Lippert\Projects\PR20170026 MyRV Switch Block\SW\22720 MyRV Switch Block SW\cmd;H:\Lippert\Projects\PR20170026 MyRV Switch Block\SW\22720 MyRV Switch Block SW\Sources;C:\Program Files (x86)\Freescale\CWS12v5.1\lib\HC12c\lib;C:\Program Files (x86)\Freescale\CWS12v5.1\lib\HC12c\src;C:\Program Files (x86)\Freescale\CWS12v5.1\lib\HC12c\include" -Env"LIBPATH=C:\Program Files (x86)\Freescale\CWS12v5.1\lib\HC12c\include" -Env"OBJPATH=H:\Lippert\Projects\PR20170026 MyRV Switch Block\SW\22720 MyRV Switch Block SW\bin" -Env"TEXTPATH=H:\Lippert\Projects\PR20170026 MyRV Switch Block\SW\22720 MyRV Switch Block SW\bin" -Lasm=%n.lst -Mb -MapFlash -ObjN="H:\Lippert\Projects\PR20170026 MyRV Switch Block\SW\22720 MyRV Switch Block SW\22720_My_RV_Switch_Block_Project_Data\Standard\ObjectCode\IDS-CAN_Integration.c.o" -TE1uE -WmsgSd1106 -WmsgSd4301

   63:  	Config.ProductionBlock.MAC[0] = mac[0];
  0000 b745         [1]     TFR   D,X
  0002 e600         [3]     LDAB  0,X
  0004 7b0000       [3]     STAB  Config:59
   64:  	Config.ProductionBlock.MAC[1] = mac[1];
  0007 e601         [3]     LDAB  1,X
  0009 7b0000       [3]     STAB  Config:60
   65:  	Config.ProductionBlock.MAC[2] = mac[2];
  000c e602         [3]     LDAB  2,X
  000e 7b0000       [3]     STAB  Config:61
   66:  	Config.ProductionBlock.MAC[3] = mac[3];
  0011 e603         [3]     LDAB  3,X
  0013 7b0000       [3]     STAB  Config:62
   67:  	Config.ProductionBlock.MAC[4] = mac[4];
  0016 e604         [3]     LDAB  4,X
  0018 7b0000       [3]     STAB  Config:63
   68:  	Config.ProductionBlock.MAC[5] = mac[5];
  001b e605         [3]     LDAB  5,X
  001d 7b0000       [3]     STAB  Config:64
   69:  	Config_ProductionBlock_Flush();
  0020 4a000000     [7]     CALL  Config_ProductionBlock_Flush,PAGE(Config_ProductionBlock_Flush)
   70:  }
  0024 0a           [7]     RTC   
   71:  
   72:  uint32 IDS_CAN_GetCircuitID(IDS_CAN_DEVICE device)
   73:  {

Function: IDS_CAN_GetCircuitID
Source  : H:\Lippert\Projects\PR20170026 MyRV Switch Block\SW\22720 MyRV Switch Block SW\Sources\IDS-CAN_Integration.c
Options : -Cni -CPUHCS12 -DPPAGE_ADDR=0x15 -D__MAP_FLASH__ -Env"GENPATH=H:\Lippert\Projects\PR20170026 MyRV Switch Block\SW\22720 MyRV Switch Block SW;H:\Lippert\Projects\PR20170026 MyRV Switch Block\SW\22720 MyRV Switch Block SW\bin;H:\Lippert\Projects\PR20170026 MyRV Switch Block\SW\22720 MyRV Switch Block SW\prm;H:\Lippert\Projects\PR20170026 MyRV Switch Block\SW\22720 MyRV Switch Block SW\cmd;H:\Lippert\Projects\PR20170026 MyRV Switch Block\SW\22720 MyRV Switch Block SW\Sources;C:\Program Files (x86)\Freescale\CWS12v5.1\lib\HC12c\lib;C:\Program Files (x86)\Freescale\CWS12v5.1\lib\HC12c\src;C:\Program Files (x86)\Freescale\CWS12v5.1\lib\HC12c\include" -Env"LIBPATH=C:\Program Files (x86)\Freescale\CWS12v5.1\lib\HC12c\include" -Env"OBJPATH=H:\Lippert\Projects\PR20170026 MyRV Switch Block\SW\22720 MyRV Switch Block SW\bin" -Env"TEXTPATH=H:\Lippert\Projects\PR20170026 MyRV Switch Block\SW\22720 MyRV Switch Block SW\bin" -Lasm=%n.lst -Mb -MapFlash -ObjN="H:\Lippert\Projects\PR20170026 MyRV Switch Block\SW\22720 MyRV Switch Block SW\22720_My_RV_Switch_Block_Project_Data\Standard\ObjectCode\IDS-CAN_Integration.c.o" -TE1uE -WmsgSd1106 -WmsgSd4301

   74:  	return Config.IDS_CAN_Block.CircuitID[device];
  0000 87           [1]     CLRA  
  0001 59           [1]     LSLD  
  0002 59           [1]     LSLD  
  0003 b745         [1]     TFR   D,X
  0005 ece20000     [4]     LDD   Config:27,X
  0009 eee20000     [4]     LDX   Config:25,X
   75:  }
  000d 0a           [7]     RTC   
   76:  
   77:  void IDS_CAN_SetCircuitID(IDS_CAN_DEVICE device, uint32 circuit_id)
   78:  {

Function: IDS_CAN_SetCircuitID
Source  : H:\Lippert\Projects\PR20170026 MyRV Switch Block\SW\22720 MyRV Switch Block SW\Sources\IDS-CAN_Integration.c
Options : -Cni -CPUHCS12 -DPPAGE_ADDR=0x15 -D__MAP_FLASH__ -Env"GENPATH=H:\Lippert\Projects\PR20170026 MyRV Switch Block\SW\22720 MyRV Switch Block SW;H:\Lippert\Projects\PR20170026 MyRV Switch Block\SW\22720 MyRV Switch Block SW\bin;H:\Lippert\Projects\PR20170026 MyRV Switch Block\SW\22720 MyRV Switch Block SW\prm;H:\Lippert\Projects\PR20170026 MyRV Switch Block\SW\22720 MyRV Switch Block SW\cmd;H:\Lippert\Projects\PR20170026 MyRV Switch Block\SW\22720 MyRV Switch Block SW\Sources;C:\Program Files (x86)\Freescale\CWS12v5.1\lib\HC12c\lib;C:\Program Files (x86)\Freescale\CWS12v5.1\lib\HC12c\src;C:\Program Files (x86)\Freescale\CWS12v5.1\lib\HC12c\include" -Env"LIBPATH=C:\Program Files (x86)\Freescale\CWS12v5.1\lib\HC12c\include" -Env"OBJPATH=H:\Lippert\Projects\PR20170026 MyRV Switch Block\SW\22720 MyRV Switch Block SW\bin" -Env"TEXTPATH=H:\Lippert\Projects\PR20170026 MyRV Switch Block\SW\22720 MyRV Switch Block SW\bin" -Lasm=%n.lst -Mb -MapFlash -ObjN="H:\Lippert\Projects\PR20170026 MyRV Switch Block\SW\22720 MyRV Switch Block SW\22720_My_RV_Switch_Block_Project_Data\Standard\ObjectCode\IDS-CAN_Integration.c.o" -TE1uE -WmsgSd1106 -WmsgSd4301

  0000 3b           [2]     PSHD  
  0001 34           [2]     PSHX  
   79:  	if (device < NUM_IDS_CAN_DEVICES)
  0002 e687         [3]     LDAB  7,SP
  0004 c108         [1]     CMPB  #8
  0006 241b         [3/1]   BCC   *+29 ;abs = 0023
   80:  	{
   81:  		Config.IDS_CAN_Block.CircuitID[device] = circuit_id;
  0008 87           [1]     CLRA  
  0009 59           [1]     LSLD  
  000a 59           [1]     LSLD  
  000b ee82         [3]     LDX   2,SP
  000d b746         [1]     TFR   D,Y
  000f 6eea0000     [3]     STX   Config:27,Y
  0013 ee80         [3]     LDX   0,SP
  0015 6eea0000     [3]     STX   Config:25,Y
   82:  		Config_IDS_CAN_Block_Flush();
  0019 4a000000     [7]     CALL  Config_IDS_CAN_Block_Flush,PAGE(Config_IDS_CAN_Block_Flush)
   83:  		
   84:  		Session_OnCircuitIDChange(device);
  001d e687         [3]     LDAB  7,SP
  001f 4a000000     [7]     CALL  Session_OnCircuitIDChange,PAGE(Session_OnCircuitIDChange)
   85:  	}
   86:  }
  0023 1b84         [2]     LEAS  4,SP
  0025 0a           [7]     RTC   
   87:  
   88:  IDS_CAN_FUNCTION_NAME IDS_CAN_GetFunctionName(IDS_CAN_DEVICE device)
   89:  {

Function: IDS_CAN_GetFunctionName
Source  : H:\Lippert\Projects\PR20170026 MyRV Switch Block\SW\22720 MyRV Switch Block SW\Sources\IDS-CAN_Integration.c
Options : -Cni -CPUHCS12 -DPPAGE_ADDR=0x15 -D__MAP_FLASH__ -Env"GENPATH=H:\Lippert\Projects\PR20170026 MyRV Switch Block\SW\22720 MyRV Switch Block SW;H:\Lippert\Projects\PR20170026 MyRV Switch Block\SW\22720 MyRV Switch Block SW\bin;H:\Lippert\Projects\PR20170026 MyRV Switch Block\SW\22720 MyRV Switch Block SW\prm;H:\Lippert\Projects\PR20170026 MyRV Switch Block\SW\22720 MyRV Switch Block SW\cmd;H:\Lippert\Projects\PR20170026 MyRV Switch Block\SW\22720 MyRV Switch Block SW\Sources;C:\Program Files (x86)\Freescale\CWS12v5.1\lib\HC12c\lib;C:\Program Files (x86)\Freescale\CWS12v5.1\lib\HC12c\src;C:\Program Files (x86)\Freescale\CWS12v5.1\lib\HC12c\include" -Env"LIBPATH=C:\Program Files (x86)\Freescale\CWS12v5.1\lib\HC12c\include" -Env"OBJPATH=H:\Lippert\Projects\PR20170026 MyRV Switch Block\SW\22720 MyRV Switch Block SW\bin" -Env"TEXTPATH=H:\Lippert\Projects\PR20170026 MyRV Switch Block\SW\22720 MyRV Switch Block SW\bin" -Lasm=%n.lst -Mb -MapFlash -ObjN="H:\Lippert\Projects\PR20170026 MyRV Switch Block\SW\22720 MyRV Switch Block SW\22720_My_RV_Switch_Block_Project_Data\Standard\ObjectCode\IDS-CAN_Integration.c.o" -TE1uE -WmsgSd1106 -WmsgSd4301

   90:  	return Config.IDS_CAN_Block.FunctionName[device];
  0000 87           [1]     CLRA  
  0001 59           [1]     LSLD  
  0002 b745         [1]     TFR   D,X
  0004 ece20000     [4]     LDD   Config:1,X
   91:  }
  0008 0a           [7]     RTC   
   92:  
   93:  uint8 IDS_CAN_GetFunctionInstance(IDS_CAN_DEVICE device)
   94:  {

Function: IDS_CAN_GetFunctionInstance
Source  : H:\Lippert\Projects\PR20170026 MyRV Switch Block\SW\22720 MyRV Switch Block SW\Sources\IDS-CAN_Integration.c
Options : -Cni -CPUHCS12 -DPPAGE_ADDR=0x15 -D__MAP_FLASH__ -Env"GENPATH=H:\Lippert\Projects\PR20170026 MyRV Switch Block\SW\22720 MyRV Switch Block SW;H:\Lippert\Projects\PR20170026 MyRV Switch Block\SW\22720 MyRV Switch Block SW\bin;H:\Lippert\Projects\PR20170026 MyRV Switch Block\SW\22720 MyRV Switch Block SW\prm;H:\Lippert\Projects\PR20170026 MyRV Switch Block\SW\22720 MyRV Switch Block SW\cmd;H:\Lippert\Projects\PR20170026 MyRV Switch Block\SW\22720 MyRV Switch Block SW\Sources;C:\Program Files (x86)\Freescale\CWS12v5.1\lib\HC12c\lib;C:\Program Files (x86)\Freescale\CWS12v5.1\lib\HC12c\src;C:\Program Files (x86)\Freescale\CWS12v5.1\lib\HC12c\include" -Env"LIBPATH=C:\Program Files (x86)\Freescale\CWS12v5.1\lib\HC12c\include" -Env"OBJPATH=H:\Lippert\Projects\PR20170026 MyRV Switch Block\SW\22720 MyRV Switch Block SW\bin" -Env"TEXTPATH=H:\Lippert\Projects\PR20170026 MyRV Switch Block\SW\22720 MyRV Switch Block SW\bin" -Lasm=%n.lst -Mb -MapFlash -ObjN="H:\Lippert\Projects\PR20170026 MyRV Switch Block\SW\22720 MyRV Switch Block SW\22720_My_RV_Switch_Block_Project_Data\Standard\ObjectCode\IDS-CAN_Integration.c.o" -TE1uE -WmsgSd1106 -WmsgSd4301

   95:  	return Config.IDS_CAN_Block.FunctionInstance[device];
  0000 ce0000       [2]     LDX   #Config:17
  0003 e6e5         [3]     LDAB  B,X
   96:  }
  0005 0a           [7]     RTC   
   97:  
   98:  void IDS_CAN_SetFunctionName(IDS_CAN_DEVICE device, IDS_CAN_FUNCTION_NAME function_name)
   99:  {

Function: IDS_CAN_SetFunctionName
Source  : H:\Lippert\Projects\PR20170026 MyRV Switch Block\SW\22720 MyRV Switch Block SW\Sources\IDS-CAN_Integration.c
Options : -Cni -CPUHCS12 -DPPAGE_ADDR=0x15 -D__MAP_FLASH__ -Env"GENPATH=H:\Lippert\Projects\PR20170026 MyRV Switch Block\SW\22720 MyRV Switch Block SW;H:\Lippert\Projects\PR20170026 MyRV Switch Block\SW\22720 MyRV Switch Block SW\bin;H:\Lippert\Projects\PR20170026 MyRV Switch Block\SW\22720 MyRV Switch Block SW\prm;H:\Lippert\Projects\PR20170026 MyRV Switch Block\SW\22720 MyRV Switch Block SW\cmd;H:\Lippert\Projects\PR20170026 MyRV Switch Block\SW\22720 MyRV Switch Block SW\Sources;C:\Program Files (x86)\Freescale\CWS12v5.1\lib\HC12c\lib;C:\Program Files (x86)\Freescale\CWS12v5.1\lib\HC12c\src;C:\Program Files (x86)\Freescale\CWS12v5.1\lib\HC12c\include" -Env"LIBPATH=C:\Program Files (x86)\Freescale\CWS12v5.1\lib\HC12c\include" -Env"OBJPATH=H:\Lippert\Projects\PR20170026 MyRV Switch Block\SW\22720 MyRV Switch Block SW\bin" -Env"TEXTPATH=H:\Lippert\Projects\PR20170026 MyRV Switch Block\SW\22720 MyRV Switch Block SW\bin" -Lasm=%n.lst -Mb -MapFlash -ObjN="H:\Lippert\Projects\PR20170026 MyRV Switch Block\SW\22720 MyRV Switch Block SW\22720_My_RV_Switch_Block_Project_Data\Standard\ObjectCode\IDS-CAN_Integration.c.o" -TE1uE -WmsgSd1106 -WmsgSd4301

  0000 3b           [2]     PSHD  
  100:  	if (device < NUM_IDS_CAN_DEVICES)
  0001 e685         [3]     LDAB  5,SP
  0003 c108         [1]     CMPB  #8
  0005 240e         [3/1]   BCC   *+16 ;abs = 0015
  101:  	{
  102:  		Config.IDS_CAN_Block.FunctionName[device] = function_name;
  0007 87           [1]     CLRA  
  0008 59           [1]     LSLD  
  0009 ee80         [3]     LDX   0,SP
  000b b746         [1]     TFR   D,Y
  000d 6eea0000     [3]     STX   Config:1,Y
  103:  		Config_IDS_CAN_Block_Flush();
  0011 4a000000     [7]     CALL  Config_IDS_CAN_Block_Flush,PAGE(Config_IDS_CAN_Block_Flush)
  104:  	}
  105:  }
  0015 3a           [3]     PULD  
  0016 0a           [7]     RTC   
  106:  
  107:  void IDS_CAN_SetFunctionInstance(IDS_CAN_DEVICE device, uint8 function_instance)
  108:  {

Function: IDS_CAN_SetFunctionInstance
Source  : H:\Lippert\Projects\PR20170026 MyRV Switch Block\SW\22720 MyRV Switch Block SW\Sources\IDS-CAN_Integration.c
Options : -Cni -CPUHCS12 -DPPAGE_ADDR=0x15 -D__MAP_FLASH__ -Env"GENPATH=H:\Lippert\Projects\PR20170026 MyRV Switch Block\SW\22720 MyRV Switch Block SW;H:\Lippert\Projects\PR20170026 MyRV Switch Block\SW\22720 MyRV Switch Block SW\bin;H:\Lippert\Projects\PR20170026 MyRV Switch Block\SW\22720 MyRV Switch Block SW\prm;H:\Lippert\Projects\PR20170026 MyRV Switch Block\SW\22720 MyRV Switch Block SW\cmd;H:\Lippert\Projects\PR20170026 MyRV Switch Block\SW\22720 MyRV Switch Block SW\Sources;C:\Program Files (x86)\Freescale\CWS12v5.1\lib\HC12c\lib;C:\Program Files (x86)\Freescale\CWS12v5.1\lib\HC12c\src;C:\Program Files (x86)\Freescale\CWS12v5.1\lib\HC12c\include" -Env"LIBPATH=C:\Program Files (x86)\Freescale\CWS12v5.1\lib\HC12c\include" -Env"OBJPATH=H:\Lippert\Projects\PR20170026 MyRV Switch Block\SW\22720 MyRV Switch Block SW\bin" -Env"TEXTPATH=H:\Lippert\Projects\PR20170026 MyRV Switch Block\SW\22720 MyRV Switch Block SW\bin" -Lasm=%n.lst -Mb -MapFlash -ObjN="H:\Lippert\Projects\PR20170026 MyRV Switch Block\SW\22720 MyRV Switch Block SW\22720_My_RV_Switch_Block_Project_Data\Standard\ObjectCode\IDS-CAN_Integration.c.o" -TE1uE -WmsgSd1106 -WmsgSd4301

  0000 37           [2]     PSHB  
  109:  	if (device < NUM_IDS_CAN_DEVICES)
  0001 e684         [3]     LDAB  4,SP
  0003 c108         [1]     CMPB  #8
  0005 240b         [3/1]   BCC   *+13 ;abs = 0012
  110:  	{
  111:  		Config.IDS_CAN_Block.FunctionInstance[device] = function_instance;
  0007 a680         [3]     LDAA  0,SP
  0009 ce0000       [2]     LDX   #Config:17
  000c 6ae5         [2]     STAA  B,X
  112:  		Config_IDS_CAN_Block_Flush();
  000e 4a000000     [7]     CALL  Config_IDS_CAN_Block_Flush,PAGE(Config_IDS_CAN_Block_Flush)
  113:  	}
  114:  }
  0012 32           [3]     PULA  
  0013 0a           [7]     RTC   
  115:  
  116:  
  117:  ////////////////////////////////////////////////////////////////////////////////
  118:  ////////////////////////////////////////////////////////////////////////////////
  119:  ////////////////////////////////////////////////////////////////////////////////
  120:  ////////////////////////////////////////////////////////////////////////////////
  121:  
  122:  #endif
  123:  
